…
``` r
#Compute averages and classify
met[, state_temp := mean(temp, na.rm = TRUE), by = STATE]

met %>% 
  drop_na(c(state_temp))
```

    ## Source: local data table [2,317,022 x 33]
    ## Call:   na.omit(`_DT1`, cols = "state_temp")
    ## 
    ##   USAFID  WBAN  year month   day  hour   min   lat   lon  elev wind.dir wind.d…¹
    ##    <int> <int> <int> <int> <int> <int> <int> <dbl> <dbl> <int>    <int> <chr>   
    ## 1 690150 93121  2019     8     1     0    56  34.3 -116.   696      220 5       
    ## 2 690150 93121  2019     8     1     1    56  34.3 -116.   696      230 5       
    ## 3 690150 93121  2019     8     1     2    56  34.3 -116.   696      230 5       
    ## 4 690150 93121  2019     8     1     3    56  34.3 -116.   696      210 5       
    ## 5 690150 93121  2019     8     1     4    56  34.3 -116.   696      120 5       
    ## 6 690150 93121  2019     8     1     5    56  34.3 -116.   696       NA 9       
    ## # … with 2,317,016 more rows, 21 more variables: wind.type.code <chr>,
    ## #   wind.sp <dbl>, wind.sp.qc <chr>, ceiling.ht <int>, ceiling.ht.qc <int>,
    ## #   ceiling.ht.method <chr>, sky.cond <chr>, vis.dist <int>, vis.dist.qc <chr>,
    ## #   vis.var <chr>, vis.var.qc <chr>, temp <dbl>, temp.qc <chr>,
    ## #   dew.point <dbl>, dew.point.qc <chr>, atm.press <dbl>, atm.press.qc <int>,
    ## #   rh <dbl>, CTRY <chr>, STATE <chr>, state_temp <dbl>, and abbreviated
    ## #   variable name ¹​wind.dir.qc
    ## # ℹ Use `print(n = ...)` to see more rows, and `colnames()` to see all variable names
    ## 
…
