…
    ## 'data.frame':    4999 obs. of  6 variables:
    ##  $ X                : int  0 1 2 3 4 5 6 7 8 9 ...
    ##  $ description      : chr  " A 23-year-old white female presents with complaint of allergies." " Consult for laparoscopic gastric bypass." " Consult for laparoscopic gastric bypass." " 2-D M-Mode. Doppler.  " ...
    ##  $ medical_specialty: chr  " Allergy / Immunology" " Bariatrics" " Bariatrics" " Cardiovascular / Pulmonary" ...
    ##  $ sample_name      : chr  " Allergic Rhinitis " " Laparoscopic Gastric Bypass Consult - 2 " " Laparoscopic Gastric Bypass Consult - 1 " " 2-D Echocardiogram - 1 " ...
    ##  $ transcription    : chr  "SUBJECTIVE:,  This 23-year-old white female presents with complaint of allergies.  She used to have allergies w"| __truncated__ "PAST MEDICAL HISTORY:, He has difficulty climbing stairs, difficulty with airline seats, tying shoes, used to p"| __truncated__ "HISTORY OF PRESENT ILLNESS: , I have seen ABC today.  He is a very pleasant gentleman who is 42 years old, 344 "| __truncated__ "2-D M-MODE: , ,1.  Left atrial enlargement with left atrial diameter of 4.7 cm.,2.  Normal size right and left "| __truncated__ ...
    ##  $ keywords         : chr  "allergy / immunology, allergic rhinitis, allergies, asthma, nasal sprays, rhinitis, nasal, erythematous, allegr"| __truncated__ "bariatrics, laparoscopic gastric bypass, weight loss programs, gastric bypass, atkin's diet, weight watcher's, "| __truncated__ "bariatrics, laparoscopic gastric bypass, heart attacks, body weight, pulmonary embolism, potential complication"| __truncated__ "cardiovascular / pulmonary, 2-d m-mode, doppler, aortic valve, atrial enlargement, diastolic function, ejection"| __truncated__ ...

``` r
mts<-as_tibble(mts)
mts
```

    ## # A tibble: 4,999 × 6
    ##        X description                             medic…¹ sampl…² trans…³ keywo…⁴
    ##    <int> <chr>                                   <chr>   <chr>   <chr>   <chr>  
    ##  1     0 " A 23-year-old white female presents … " Alle… " Alle… "SUBJE… "aller…
    ##  2     1 " Consult for laparoscopic gastric byp… " Bari… " Lapa… "PAST … "baria…
    ##  3     2 " Consult for laparoscopic gastric byp… " Bari… " Lapa… "HISTO… "baria…
    ##  4     3 " 2-D M-Mode. Doppler.  "               " Card… " 2-D … "2-D M… "cardi…
    ##  5     4 " 2-D Echocardiogram"                   " Card… " 2-D … "1.  T… "cardi…
    ##  6     5 " Morbid obesity.  Laparoscopic anteco… " Bari… " Lapa… "PREOP… "baria…
    ##  7     6 " Liposuction of the supraumbilical ab… " Bari… " Lipo… "PREOP… "baria…
    ##  8     7 " 2-D Echocardiogram"                   " Card… " 2-D … "2-D E… "cardi…
    ##  9     8 " Suction-assisted lipectomy - lipodys… " Bari… " Lipe… "PREOP… "baria…
    ## 10     9 " Echocardiogram and Doppler"           " Card… " 2-D … "DESCR… "cardi…
    ## # … with 4,989 more rows, and abbreviated variable names ¹​medical_specialty,
    ## #   ²​sample_name, ³​transcription, ⁴​keywords
    ## # ℹ Use `print(n = ...)` to see more rows

\#Question 1: What specialties do we have and how many of each are there
in the dataset? We can use count() from dplyr”

``` r
mts %>% count(medical_specialty)
```

    ## # A tibble: 40 × 2
    ##    medical_specialty                 n
    ##    <chr>                         <int>
    ##  1 " Allergy / Immunology"           7
    ##  2 " Autopsy"                        8
    ##  3 " Bariatrics"                    18
    ##  4 " Cardiovascular / Pulmonary"   372
    ##  5 " Chiropractic"                  14
    ##  6 " Consult - History and Phy."   516
    ##  7 " Cosmetic / Plastic Surgery"    27
    ##  8 " Dentistry"                     27
    ##  9 " Dermatology"                   29
    ## 10 " Diets and Nutritions"          10
    ## # … with 30 more rows
    ## # ℹ Use `print(n = ...)` to see more rows
…
``` r
colnames(mts)
```

    ## [1] "X"                 "description"       "medical_specialty"
    ## [4] "sample_name"       "transcription"     "keywords"

``` r
specialties<-mts %>% count(medical_specialty)
specialties %>% arrange(desc(n))
```

    ## # A tibble: 40 × 2
    ##    medical_specialty                    n
    ##    <chr>                            <int>
    ##  1 " Surgery"                        1103
    ##  2 " Consult - History and Phy."      516
    ##  3 " Cardiovascular / Pulmonary"      372
    ##  4 " Orthopedic"                      355
    ##  5 " Radiology"                       273
    ##  6 " General Medicine"                259
    ##  7 " Gastroenterology"                230
    ##  8 " Neurology"                       223
    ##  9 " SOAP / Chart / Progress Notes"   166
    ## 10 " Obstetrics / Gynecology"         160
    ## # … with 30 more rows
    ## # ℹ Use `print(n = ...)` to see more rows
…
